{

"IsSent":false,
"_id":null,
"UserId":null,
"CandidateId":null,
"ProviderCandidateId":null,
"ProviderModifiedDate":null,
"Title":null,
"FirstName":"Rohit",
"MiddleName":"Dhondiram",
"LastName":"Kadam",
"BirthDate":null,
"Gender":null,
"MaritalStatus":null,
"ProfileImagePath":null,
"ProfileImageFile":null,
"PrimaryEmail":"rohitkadam415@gmail.com",
"SecondaryEmail":null,
"Mobile":"8275377963",
"Phone":null,
"WorkPhone":null,
"Fax":null,
"Address1":null,
"Address2":null,
"Address3":null,
"CountryId":"00000000-0000-0000-0000-000000000000",
"Country":null,
"StateId":"00000000-0000-0000-0000-000000000000",
"State":null,
"CityId":"00000000-0000-0000-0000-000000000000",
"City":null,
"Zip":null,
"HavePassport":false,
"PassportValidUpto":null,
"VisaType":null,
"VisaValidUpto":null,
"VisaTypeList":null,
"ProfileTitle":null,
"ProfileSummary":"? 5+ years plus of extensive hands-on experience in android development. ; ? Strong experience with Android/Java, Android Activity, Fragment and UI Layout. ; ? Strong knowledge of threading models, especially AsyncTasks. ; ? A basic understanding of technologies like Java, Groovy/Grails, MySQL, JSON, XML and ; REST so you can work closely with web and server engineers. ; ? Experience in developing and deploying mobile applications at the enterprise level. ; ? Expertise in Web Services, JSON, XML and Ajax. ; ? Work with third party components and libraries. ; ? Experience with maps and location based applications. ; ? Experience with integrating with social media APIs and Google Services into android ; applications. ; ? Experience with Google Cloud Messaging. ; ? Development tasks include: coding, testing, debugging, documenting, peer-reviewing, ; deploying, monitoring, and support. All tasks are performed in accordance with industry ; best practices and specific internal procedures and standards. ; ? Contribute to task identification, work effort estimates, and work schedules for ; development and maintenance activities. ; ? Work with internal departments to provide associated artefacts required for the ; successful completion of development and maintenance assignments. ; ? Work with a team of software engineers and global business stakeholders in an Agile ; software environment. ; ? Understanding of Git based source code control management including branching ; strategies. ",
"Designation":null,
"ExperienceInYear":null,
"ExperienceInMonth":null,
"CurrentSalary":null,
"CurrentSalaryType":null,
"CurrentSalaryCurrencyType":null,
"ExpectedSalary":null,
"ExpectedSalaryType":null,
"ExpectedSalaryCurrencyType":null,
"CurrentLocation":null,
"PreferredLocation":null,
"CanReLocate":null,
"SendJobAlert":null,
"Educations":[
],
"Courses":[
],
"Certifications":null,
"Skills":[
"Android",
"JAVA",
"JavaScript",
"PHP",
"Windows 7",
"Windows 8.1",
"Windows 10",
"Linux",
"SQL",
"MYSQL",
"SQLite",
"Android Studio",
"Visual Studio"
],
"DegreeList":null,
"ResumeList":null,
"VideoResume":null,
"isResumeCreated":false,
"Interests":null,
"ApplicationList":null,
"LinkedInURL":null,
"TwitterURL":null,
"GooglePlusURL":null,
"FacebookURL":null,
"ReferredBy":null,
"Source":null,
"CompanyName":null,
"Status":null,
"Rating":null,
"EmployementType":null,
"PayRate":null,
"BillRate":null,
"Compensation":null,
"Languages":null,
"AvailabilityDate":null,
"USExperienceInYear":null,
"USExperienceInMonth":null,
"SSN":null,
"Categories":null,
"Groups":null,
"DisplayName":null,
"SourceQueue":null,
"EmployementHistory":null,
"Projects":[
{
"StartDate":null,
"EndDate":null,
"ProjectTitle":"Description",
"Role":"",
"Description":"",
"TeamSize":"",
"Client":"",
"SkillsUsed":""
},
{
"StartDate":null,
"EndDate":null,
"ProjectTitle":"Responsibilities",
"Role":"",
"Description":"",
"TeamSize":"",
"Client":"",
"SkillsUsed":""
}
],
"CreatedBy":null,
"CreatedByName":null,
"CreatedOn":null,
"ModifiedBy":null,
"ModifiedByName":null,
"ModifiedOn":null,
"IsCandidate":false
}